<?xml version="1.0" encoding="UTF-8" standalone="no"?>
<!-- Created with Inkscape (http://www.inkscape.org/) -->

<svg
   xmlns:dc="http://purl.org/dc/elements/1.1/"
   xmlns:cc="http://creativecommons.org/ns#"
   xmlns:rdf="http://www.w3.org/1999/02/22-rdf-syntax-ns#"
   xmlns:svg="http://www.w3.org/2000/svg"
   xmlns="http://www.w3.org/2000/svg"
   xmlns:sodipodi="http://sodipodi.sourceforge.net/DTD/sodipodi-0.dtd"
   xmlns:inkscape="http://www.inkscape.org/namespaces/inkscape"
   width="50mm"
   height="50mm"
   viewBox="0 0 50 50"
   version="1.1"
   id="svg1053"
   inkscape:version="0.92.3 (2405546, 2018-03-11)"
   sodipodi:docname="giro3d_logo_compact.svg">
  <defs
     id="defs1047" />
  <sodipodi:namedview
     id="base"
     pagecolor="#ffffff"
     bordercolor="#666666"
     borderopacity="1.0"
     inkscape:pageopacity="0.0"
     inkscape:pageshadow="2"
     inkscape:zoom="0.35"
     inkscape:cx="-192.85714"
     inkscape:cy="560"
     inkscape:document-units="mm"
     inkscape:current-layer="layer1"
     showgrid="false"
     inkscape:window-width="1920"
     inkscape:window-height="1171"
     inkscape:window-x="1920"
     inkscape:window-y="0"
     inkscape:window-maximized="1" />
  <metadata
     id="metadata1050">
    <rdf:RDF>
      <cc:Work
         rdf:about="">
        <dc:format>image/svg+xml</dc:format>
        <dc:type
           rdf:resource="http://purl.org/dc/dcmitype/StillImage" />
        <dc:title></dc:title>
      </cc:Work>
    </rdf:RDF>
  </metadata>
  <g
     inkscape:label="Calque 1"
     inkscape:groupmode="layer"
     id="layer1"
     transform="translate(0,-247)">
    <path
       style="opacity:1;fill:#4da6e9;fill-opacity:1;stroke:none;stroke-width:0.108;stroke-linecap:round;stroke-linejoin:bevel;stroke-miterlimit:4;stroke-dasharray:none;stroke-dashoffset:0;stroke-opacity:1;paint-order:stroke fill markers"
       d="m 19.875692,265.03769 v -7.02319 h 22.120933 v 29.01911 H 12.97752 v -21.99592 z"
       id="rect1234-2-9-6"
       inkscape:connector-curvature="0"
       sodipodi:nodetypes="ccccccc" />
    <path
       style="fill:#1567a5;fill-opacity:0.5693436;stroke:none;stroke-width:0.26458332px;stroke-linecap:butt;stroke-linejoin:miter;stroke-opacity:1"
       d="m 23.340351,287.03362 18.656274,-3e-5 v -16.17051 l -8.998712,-6.17631 c -13.69968,5.159 -5.221961,-9.73488 -14.555996,11.49062 z"
       id="path1081-2"
       inkscape:connector-curvature="0"
       sodipodi:nodetypes="cccccc" />
    <text
       xml:space="preserve"
       style="font-style:normal;font-weight:normal;font-size:24.77927589px;line-height:0;font-family:sans-serif;letter-spacing:0px;word-spacing:0px;fill:#ffffff;fill-opacity:1;stroke:none;stroke-width:0.61948204"
       x="16.980665"
       y="281.67996"
       id="text823-6-2-9-3-3-7-9-3-6"><tspan
         sodipodi:role="line"
         id="tspan821-0-4-6-3-3-4-9-3-7"
         x="16.980665"
         y="281.67996"
         style="font-style:normal;font-variant:normal;font-weight:600;font-stretch:normal;font-size:24.77927589px;font-family:'URW Gothic L';-inkscape-font-specification:'URW Gothic L Semi-Bold';font-variant-ligatures:normal;font-variant-caps:normal;font-variant-numeric:normal;font-feature-settings:normal;text-align:start;writing-mode:lr-tb;text-anchor:start;fill:#ffffff;fill-opacity:1;stroke:none;stroke-width:0.61948204">G</tspan></text>
    <path
       style="fill:#bddef7;fill-opacity:1;stroke:none;stroke-width:0.26458332px;stroke-linecap:butt;stroke-linejoin:miter;stroke-opacity:1"
       d="m 11.473111,261.52569 h 4.943862 l 3.458718,3.512 h -6.898172 z"
       id="path1094-5"
       inkscape:connector-curvature="0"
       sodipodi:nodetypes="ccccc" />
    <path
       style="fill:#1567a5;fill-opacity:1;stroke:none;stroke-width:0.26458332px;stroke-linecap:butt;stroke-linejoin:miter;stroke-opacity:1"
       d="m 16.416973,261.52569 v -6.46018 l 3.458718,2.94898 v 7.0232 z"
       id="path1096-6"
       inkscape:connector-curvature="0"
       sodipodi:nodetypes="ccccc" />
    <path
       style="fill:#bddef7;fill-opacity:1;stroke:none;stroke-width:0.26458332px;stroke-linecap:butt;stroke-linejoin:miter;stroke-opacity:1"
       d="m 16.416973,255.06549 h 17.286009 l 8.293643,2.949 H 19.875691 Z"
       id="path1099-9"
       inkscape:connector-curvature="0" />
    <path
       style="fill:#1567a5;fill-opacity:1;stroke:none;stroke-width:0.26458332px;stroke-linecap:butt;stroke-linejoin:miter;stroke-opacity:1"
       d="m 11.473109,261.52569 v 18.29832 l 1.50441,7.20958 v -21.9959 z"
       id="path1101-8"
       inkscape:connector-curvature="0" />
    <path
       style="fill:#bddef7;fill-opacity:1;stroke:none;stroke-width:0.26458332px;stroke-linecap:butt;stroke-linejoin:miter;stroke-opacity:1"
       d="m 8.7366526,250.6378 1.159619,1.55805 h 4.5320244 l -2.068608,-1.55805 z"
       id="path1106-7"
       inkscape:connector-curvature="0"
       sodipodi:nodetypes="ccccc" />
    <path
       style="fill:#4da6e9;fill-opacity:1;stroke:none;stroke-width:0.26458332px;stroke-linecap:butt;stroke-linejoin:miter;stroke-opacity:1"
       d="M 14.428692,252.19596 H 9.8960796 v 7.08191 l 4.5326124,-1.8e-4 z"
       id="path1108-2"
       inkscape:connector-curvature="0"
       sodipodi:nodetypes="ccccc" />
    <path
       style="fill:#1567a5;fill-opacity:1;stroke:none;stroke-width:0.26458332px;stroke-linecap:butt;stroke-linejoin:miter;stroke-opacity:1"
       d="m 8.7366526,250.6378 v 5.66364 l 1.159427,2.97643 v -7.08191 z"
       id="path1113-8"
       inkscape:connector-curvature="0" />
    <path
       style="fill:#bddef7;fill-opacity:1;stroke:none;stroke-width:0.26458332px;stroke-linecap:butt;stroke-linejoin:miter;stroke-opacity:1"
       d="m 6.4024276,259.94266 0.183967,1.25006 h 2.492357 l -0.370004,-1.25006 z"
       id="path1115-2"
       inkscape:connector-curvature="0"
       sodipodi:nodetypes="ccccc" />
    <path
       style="fill:#4da6e9;fill-opacity:1;stroke:none;stroke-width:0.26458332px;stroke-linecap:butt;stroke-linejoin:miter;stroke-opacity:1"
       d="m 9.0786916,261.19279 h -2.492125 v 2.82451 l 2.492125,4e-4 z"
       id="path1122-9"
       inkscape:connector-curvature="0"
       sodipodi:nodetypes="ccccc" />
    <path
       style="fill:#1567a5;fill-opacity:1;stroke:none;stroke-width:0.26458332px;stroke-linecap:butt;stroke-linejoin:miter;stroke-opacity:1"
       d="m 6.4024276,259.94266 -0.0181,2.47169 0.202054,1.603 v -2.82463 z"
       id="path1124-9"
       inkscape:connector-curvature="0"
       sodipodi:nodetypes="ccccc" />
    <path
       style="fill:#bddef7;fill-opacity:1;stroke:none;stroke-width:0.26458332px;stroke-linecap:butt;stroke-linejoin:miter;stroke-opacity:1"
       d="m 8.0250666,266.86835 0.48731,2.79929 h 1.9063444 l -0.6986684,-2.79929 z"
       id="path1145-6"
       inkscape:connector-curvature="0"
       sodipodi:nodetypes="ccccc" />
    <path
       style="fill:#4da6e9;fill-opacity:1;stroke:none;stroke-width:0.26458332px;stroke-linecap:butt;stroke-linejoin:miter;stroke-opacity:1"
       d="m 8.5126916,269.66758 h 1.9059494 v 7.24392 l -1.9059494,1.9e-4 z"
       id="path1151-0"
       inkscape:connector-curvature="0"
       sodipodi:nodetypes="ccccc" />
    <path
       style="fill:#1567a5;fill-opacity:1;stroke:none;stroke-width:0.26458332px;stroke-linecap:butt;stroke-linejoin:miter;stroke-opacity:1"
       d="m 8.0250666,266.86835 0.02326,6.60992 0.464569,3.43337 v -7.244 z"
       id="path1153-2"
       inkscape:connector-curvature="0"
       sodipodi:nodetypes="ccccc" />
    <text
       xml:space="preserve"
       style="font-style:normal;font-weight:normal;font-size:7.78070927px;line-height:0;font-family:sans-serif;letter-spacing:0px;word-spacing:0px;fill:#4da6e9;fill-opacity:1;stroke:none;stroke-width:0.19451772"
       x="12.744155"
       y="293.36819"
       id="text823-6-2-9-9-0-5-7"><tspan
         sodipodi:role="line"
         id="tspan821-0-4-6-35-8-6-6"
         x="12.744155"
         y="293.36819"
         style="font-style:normal;font-variant:normal;font-weight:600;font-stretch:normal;font-size:7.78070784px;font-family:'URW Gothic L';-inkscape-font-specification:'URW Gothic L Semi-Bold';font-variant-ligatures:normal;font-variant-caps:normal;font-variant-numeric:normal;font-feature-settings:normal;text-align:start;writing-mode:lr-tb;text-anchor:start;fill:#4da6e9;fill-opacity:1;stroke-width:0.19451772">GIRO<tspan
   style="fill:#1976bd;fill-opacity:1;stroke-width:0.19451772"
   id="tspan1120-9-7-1-6-1">3D</tspan></tspan></text>
  </g>
</svg>
